﻿weapon=fighter
    level=1 chance=100
    level=2 chance=100
    level=3 chance=100
    level=4 chance=70
    level=5 chance=70
    level=6 chance=70
    level=7 chance=70
    level=8 chance=70
    level=9 chance=70
    level=10 chance=70
    level=11 chance=70
    level=12 chance=70
    level=13 chance=70
    level=14 chance=70
    level=15 chance=70
    level=16 chance=35
    level=17 chance=35
    level=18 chance=35
    level=19 chance=35
    level=20 chance=35
    level=21 chance=35
    level=22 chance=35
    level=23 chance=35
    level=24 chance=35
    level=25 chance=35
    level=26 chance=35
    level=27 chance=35
    level=28 chance=35
    level=29 chance=35
    level=30 chance=35
    level=31 chance=35
    level=32 chance=35
    level=33 chance=35
    level=34 chance=35
    level=35 chance=35
    level=36 chance=35
    level=37 chance=35
    level=38 chance=35
    level=39 chance=35
    level=40 chance=35
    level=41 chance=35
    level=42 chance=35
    level=43 chance=35
    level=44 chance=35
    level=45 chance=35
    level=46 chance=35
    level=47 chance=35
    level=48 chance=35
    level=49 chance=35
    level=50 chance=35
weapon=mage
    level=1 chance=100
    level=2 chance=100
    level=3 chance=100
    level=4 chance=40
    level=5 chance=40
    level=6 chance=40
    level=7 chance=40
    level=8 chance=40
    level=9 chance=40
    level=10 chance=40
    level=11 chance=40
    level=12 chance=40
    level=13 chance=40
    level=14 chance=40
    level=15 chance=40
    level=16 chance=20
    level=17 chance=20
    level=18 chance=20
    level=19 chance=20
    level=20 chance=20
    level=21 chance=20
    level=22 chance=20
    level=23 chance=20
    level=24 chance=20
    level=25 chance=20
    level=26 chance=20
    level=27 chance=20
    level=28 chance=20
    level=29 chance=20
    level=30 chance=20
    level=31 chance=20
    level=32 chance=20
    level=33 chance=20
    level=34 chance=20
    level=35 chance=20
    level=36 chance=20
    level=37 chance=20
    level=38 chance=20
    level=39 chance=20
    level=40 chance=20
    level=41 chance=20
    level=42 chance=20
    level=43 chance=20
    level=44 chance=20
    level=45 chance=20
    level=46 chance=20
    level=47 chance=20
    level=48 chance=20
    level=49 chance=20
    level=50 chance=20
armor=normal
    level=1 chance=100
    level=2 chance=100
    level=3 chance=100
    level=4 chance=66.6667
    level=5 chance=33.3333
    level=6 chance=25
    level=7 chance=20
    level=8 chance=16.6667
    level=9 chance=14.2857
    level=10 chance=12.5
    level=11 chance=11.1111
    level=12 chance=10
    level=13 chance=9.09091
    level=14 chance=8.33333
    level=15 chance=7.69231
    level=16 chance=3.57143
    level=17 chance=3.33333
    level=18 chance=3.125
    level=19 chance=2.94118
    level=20 chance=2.77778
    level=21 chance=0
armor=onepiece
    level=1 chance=100
    level=2 chance=100
    level=3 chance=100
    level=4 chance=100
    level=5 chance=66.6667
    level=6 chance=33.3333
    level=7 chance=25
    level=8 chance=20
    level=9 chance=16.6667
    level=10 chance=14.2857
    level=11 chance=12.5
    level=12 chance=11.1111
    level=13 chance=10
    level=14 chance=9.09091
    level=15 chance=8.33333
    level=16 chance=3.84615
    level=17 chance=3.57143
    level=18 chance=3.33333
    level=19 chance=3.125
    level=20 chance=2.94118
    level=21 chance=0
weapon=event
    level=1 chance=100
    level=2 chance=100
    level=3 chance=100
    level=4 chance=80
    level=5 chance=80
    level=6 chance=80
    level=7 chance=80
    level=8 chance=80
    level=9 chance=80
    level=10 chance=80
    level=11 chance=80
    level=12 chance=80
    level=13 chance=80
    level=14 chance=80
    level=15 chance=80
    level=16 chance=80
    level=17 chance=80
    level=18 chance=80
    level=19 chance=80
    level=20 chance=80
    level=21 chance=80
    level=22 chance=80
    level=23 chance=80
    level=24 chance=0
